8.137243938482839485e-28
1.571759433727444198e-03
4.084928947901900892e-03
4.465175564502114371e-03
1.992404218594223588e-03
6.585370810490905541e-08
3.878047001147040714e-03
1.825658433487700391e-02
4.458189793006662321e-02
7.576198511806388203e-02
9.854034519456611463e-02
1.036226606016490415e-01
8.817074593910877167e-02
6.292540902996350549e-02
3.896699453157960458e-02
2.118419932209047660e-02
1.075868203790701812e-02
5.230460530294017175e-03
2.498643537220502069e-03
1.222115131924774020e-03
6.018179527719410291e-04
3.047670044814126955e-04
1.563687020062635221e-04
8.108137637337710401e-05
4.265680711849533576e-05
2.257075161628812820e-05
1.211172806950445691e-05
6.546342512774321476e-06
3.579930838936329356e-06
1.970497230835330691e-06
1.094654910921064045e-06
6.110620121176553247e-07
3.437535956379212737e-07
1.941575679402204167e-07
1.103428488843832773e-07
6.290585447892874110e-08
3.603809758963461911e-08
2.069262429488428140e-08
1.192550844524981279e-08
6.883057444226104401e-09
3.984224273719401408e-09
2.308585835921879499e-09
1.340754348801264216e-09
7.792715110528995322e-10
4.538986758265580512e-10
2.645919594158924671e-10
1.545408812646753603e-10
9.033205890697695432e-11
5.290296270011797071e-11
3.100702831528799573e-11
1.820714926629408320e-11
1.069923616205966745e-11
6.298767442233102387e-12
3.711017781802036637e-12
2.190344555013706822e-12
1.293744043835457300e-12
7.653855489648660492e-13
4.530891529274507075e-13
2.686736547623116753e-13
1.594333229738009544e-13
9.476020673562999042e-14
5.635766319419886541e-14
3.356876916954534625e-14
2.000642677125057424e-14
1.194091208290574136e-14
7.131025016436158693e-15
4.264705417023001318e-15
2.551944012996074269e-15
1.529147775654882361e-15
9.167662474326509908e-16
5.503670402029677459e-16
3.305595226581526372e-16
1.987657895811673848e-16
1.195606698624011290e-16
7.200680375818609020e-17
4.338892033433987734e-17
2.617980401282063012e-17
1.580399893995280975e-17
9.549272338106110905e-18
5.771527288784938680e-18
3.492919132207626628e-18
2.114875189777546867e-18
1.281482906544215261e-18
7.766956498747961624e-19
4.714602776564740894e-19
2.863478537846325516e-19
1.740160426344989687e-19
1.057553852711794980e-19
6.435280836216485739e-20
3.917777428876833059e-20
2.387014826817085036e-20
1.454712264947911553e-20
8.875617677923088584e-21
5.417545499538727775e-21
3.309501242904064357e-21
2.022051233842994625e-21
1.236428721234183923e-21
7.561693897421619670e-22
4.628496727935374398e-22
2.834054699820949815e-22
1.737250780403583463e-22
1.065508008694575880e-22
6.542114765664868099e-23
4.018923905837014174e-23
2.471783787074146349e-23
1.521760791849674204e-23
9.391229690734016345e-24
5.811484695354939328e-24
3.612403701849973282e-24
2.257339672525534119e-24
1.420783693009334008e-24
8.992306889049679217e-25
5.706195731106204115e-25
3.610945743659116544e-25
2.262414937355523850e-25
1.399863867441026230e-25
8.579999683806090936e-26
5.215007220298002585e-26
3.164567267834941099e-26
1.921671915167492477e-26
1.169216864311803796e-26
7.136564576752509187e-27
4.364079712753578734e-27
2.672780305350130521e-27
1.639151493384983533e-27
1.005051033581647609e-27
6.157458654971018065e-28
3.760296636127470434e-28
2.285067926298922331e-28
1.374714122321747487e-28
8.131776937392802679e-29
4.668498654268007214e-29
2.545232188331620428e-29
1.259290039978462514e-29
5.097860109246212243e-30
1.203703107368080717e-30
4.059316398852776308e-59
1.203703107368088424e-30
5.097860109246472885e-30
1.259290039978515203e-29
2.545232188331593523e-29
4.668498654267855313e-29
8.131776937392686091e-29
1.374714122321777755e-28
2.285067926299066272e-28
3.760296636127708094e-28
6.157458654971146312e-28
1.005051033581609942e-27
1.639151493384821745e-27
2.672780305349892322e-27
4.364079712753590214e-27
7.136564576752870789e-27
1.169216864311822163e-26
1.921671915167435653e-26
3.164567267834767760e-26
5.215007220297735115e-26
8.579999683805890046e-26
1.399863867441040923e-25
2.262414937355623492e-25
3.610945743659275879e-25
5.706195731106228911e-25
8.992306889049512077e-25
1.420783693009320600e-24
2.257339672525571221e-24
3.612403701850165034e-24
5.811484695355225854e-24
9.391229690733984019e-24
1.521760791849611022e-23
2.471783787074022628e-23
4.018923905836984199e-23
6.542114765665440565e-23
1.065508008694672270e-22
1.737250780403522102e-22
2.834054699820623498e-22
4.628496727934905141e-22
7.561693897421418426e-22
1.236428721234296958e-21
2.022051233843207907e-21
3.309501242903964675e-21
5.417545499538278642e-21
8.875617677923252589e-21
1.454712264948017479e-20
2.387014826817125661e-20
3.917777428876712087e-20
6.435280836216302776e-20
1.057553852711784267e-19
1.740160426345000520e-19
2.863478537846374146e-19
4.714602776564867042e-19
7.766956498747915402e-19
1.281482906544096816e-18
2.114875189777331548e-18
3.492919132207632791e-18
5.771527288785302296e-18
9.549272338106397483e-18
1.580399893995288062e-17
2.617980401282117246e-17
4.338892033434139344e-17
7.200680375818890051e-17
1.195606698624020904e-16
1.987657895811516569e-16
3.305595226581288235e-16
5.503670402030274035e-16
9.167662474326997029e-16
1.529147775654329173e-15
2.551944012995105548e-15
4.264705417023734170e-15
7.131025016439713300e-15
1.194091208291049977e-14
2.000642677125246120e-14
3.356876916953644159e-14
5.635766319418313868e-14
9.476020673563592265e-14
1.594333229738930681e-13
2.686736547626162640e-13
4.530891529279776918e-13
7.653855489653214429e-13
1.293744043835477091e-12
2.190344555013258497e-12
3.711017781800218294e-12
6.298767442225417847e-12
1.069923616205474152e-11
1.820714926633581381e-11
3.100702831536676530e-11
5.290296270007518996e-11
9.033205890677141286e-11
1.545408812646202752e-10
2.645919594161300230e-10
4.538986758267305700e-10
7.792715110524074631e-10
1.340754348798946250e-09
2.308585835919278016e-09
3.984224273725030372e-09
6.883057444242306387e-09
1.192550844525911030e-08
2.069262429487850107e-08
3.603809758963817268e-08
6.290585447894271714e-08
1.103428488843438771e-07
1.941575679400194846e-07
3.437535956374329592e-07
6.110620121166389911e-07
1.094654910918918299e-06
1.970497230833268165e-06
3.579930838940424336e-06
6.546342512786940572e-06
1.211172806951351508e-05
2.257075161629165525e-05
4.265680711853319474e-05
8.108137637344433810e-05
1.563687020061614716e-04
3.047670044812341274e-04
6.018179527730090767e-04
1.222115131926224682e-03
2.498643537213226639e-03
5.230460530278781967e-03
1.075868203792343034e-02
2.118419932215708304e-02
3.896699453161923260e-02
6.292540902990356733e-02
8.817074593895835033e-02
1.036226606014927915e-01
9.854034519455087682e-02
7.576198511816109593e-02
4.458189793012186375e-02
1.825658433487140769e-02
3.878047001129378626e-03
6.585370802504807599e-08
1.992404218592153196e-03
4.465175564476454341e-03
4.084928947883720123e-03
1.571759433725412837e-03
